{
    "MESSAGE_HEADER": {
        "SENDING_APPLICATION": "ADT",
        "SENDING_FACILITY": "10829",
        "RECEIVING_APPLICATION": "IL",
        "RECEIVING_FACILITY": "10829",
        "MESSAGE_DATETIME": "20170713110000",
        "SECURITY": "",
        "MESSAGE_TYPE": "ADT^A04",
        "PROCESSING_ID": "P"
    },
    "PATIENT_IDENTIFICATION": {
        "EXTERNAL_PATIENT_ID": {
            "ID": "110ec58a-a0f2-4ac4-8393-c866d813b8d1",
            "IDENTIFIER_TYPE": "GODS_NUMBER",
            "ASSIGNING_AUTHORITY": "MPI"
        },
        "INTERNAL_PATIENT_ID": [{
                "ID": "10829-123456",
                "IDENTIFIER_TYPE": "CCC_NUMBER",
                "ASSIGNING_AUTHORITY": "CCC"
            }, {
                "ID": "27326037",
                "IDENTIFIER_TYPE": "NATIONAL_ID",
                "ASSIGNING_AUTHORITY": "GOK"
            }, {
                "ID": "098765ABC",
                "IDENTIFIER_TYPE": "NHIF",
                "ASSIGNING_AUTHORITY": "NHIF"
            }],
        "PATIENT_NAME": {
            "FIRST_NAME": "HAUWEI",
            "MIDDLE_NAME": "MOBILE PHONE",
            "LAST_NAME": "MBUGUA"
        },
        "MOTHER_MAIDEN_NAME": "WAIRIMU",
        "DATE_OF_BIRTH": "19721223",
        "SEX": "F",
        "PATIENT_ADDRESS": {
            "PHYSICAL_ADDRESS": {
                "VILLAGE": "KWAKIMANI",
                "WARD": "KIMANINI",
                "SUB_COUNTY": "KIAMBU EAST",
                "COUNTY": "KIAMBU"
            },
            "POSTAL_ADDRESS": "789 KIAMBU"
        },
        "PHONE_NUMBER": "0714339521",
        "MARITAL_STATUS": "S",
        "DEATH_DATE": "",
        "DEATH_INDICATOR": "N"
    },
    "NEXT_OF_KIN": [{
            "NOK_NAME": {
                "FIRST_NAME": "WAIGURU",
                "MIDDLE_NAME": "KIMUTAI",
                "LAST_NAME": "WANJOKI"
            },
            "RELATIONSHIP": "**AS DEFINED IN GREENCARD",
            "ADDRESS": "4678 KIAMBU",
            "PHONE_NUMBER": "25489767899",
            "SEX": "F",
            "DATE_OF_BIRTH": "19871022",
            "CONTACT_ROLE": "T"
        }],
    "OBSERVATION_RESULT": [{
            "OBSERVATION_IDENTIFIER": "START_HEIGHT",
            "CODING_SYSTEM": "",
            "VALUE_TYPE": "NM",
            "OBSERVATION_VALUE": "120",
            "UNITS": "CM",
            "OBSERVATION_RESULT_STATUS": "F",
            "OBSERVATION_DATETIME": "20170713110000",
            "ABNORMAL_FLAGS": "N"
        }, {
            "OBSERVATION_IDENTIFIER": "START_WEIGHT",
            "CODING_SYSTEM": "",
            "VALUE_TYPE": "NM",
            "OBSERVATION_VALUE": "120",
            "UNITS": "KG",
            "OBSERVATION_RESULT_STATUS": "F",
            "OBSERVATION_DATETIME": "20170713110000",
            "ABNORMAL_FLAGS": "N"
        }, {
            "OBSERVATION_IDENTIFIER": "IS_PREGNANT",
            "CODING_SYSTEM": "",
            "VALUE_TYPE": "CE",
            "OBSERVATION_VALUE": "N",
            "UNITS": "YES/NO",
            "OBSERVATION_RESULT_STATUS": "F",
            "OBSERVATION_DATETIME": "20170713110000",
            "ABNORMAL_FLAGS": "N"
        }, {
            "OBSERVATION_IDENTIFIER": "PRENGANT_EDD",
            "CODING_SYSTEM": "",
            "VALUE_TYPE": "D",
            "OBSERVATION_VALUE": "20170713110000",
            "UNITS": "DATE",
            "OBSERVATION_RESULT_STATUS": "F",
            "OBSERVATION_DATETIME": "20170713110000",
            "ABNORMAL_FLAGS": "N"
        }, {
            "OBSERVATION_IDENTIFIER": "CURRENT_REGIMEN",
            "CODING_SYSTEM": "NASCOP_CODES",
            "VALUE_TYPE": "CE",
            "OBSERVATION_VALUE": "AF1A",
            "UNITS": "",
            "OBSERVATION_RESULT_STATUS": "F",
            "OBSERVATION_DATETIME": "20170713110000",
            "ABNORMAL_FLAGS": "N"
        }, {
            "OBSERVATION_IDENTIFIER": "IS_SMOKER",
            "CODING_SYSTEM": "",
            "VALUE_TYPE": "CE",
            "OBSERVATION_VALUE": "Y",
            "UNITS": "YES/NO",
            "OBSERVATION_RESULT_STATUS": "F",
            "OBSERVATION_DATETIME": "20170713110000",
            "ABNORMAL_FLAGS": "N"
        }, {
            "OBSERVATION_IDENTIFIER": "IS_ALCOHOLIC",
            "CODING_SYSTEM": "",
            "VALUE_TYPE": "CE",
            "OBSERVATION_VALUE": "Y",
            "UNITS": "YES/NO",
            "OBSERVATION_RESULT_STATUS": "F",
            "OBSERVATION_DATETIME": "20170713110000",
            "ABNORMAL_FLAGS": "N"
        }]
}
