{
    "MESSAGE_HEADER": {
        "SENDING_APPLICATION": "ADT",
        "SENDING_FACILITY": "10829",
        "RECEIVING_APPLICATION": "IL",
        "RECEIVING_FACILITY": "10829",
        "MESSAGE_DATETIME": "20170713110000",
        "SECURITY": "",
        "MESSAGE_TYPE": "SIU^S12",
        "PROCESSING_ID": "P"
    },
    "PATIENT_IDENTIFICATION": {
        "EXTERNAL_PATIENT_ID": {
            "ID": "110ec58a-a0f2-4ac4-8393-c866d813b8d1",
            "IDENTIFIER_TYPE": "GODS_NUMBER",
            "ASSIGNING_AUTHORITY": "MPI"
        },
        "INTERNAL_PATIENT_ID": [
            {
                "ID": "12345678",
                "IDENTIFIER_TYPE": "CCC_NUMBER",
                "ASSIGNING_AUTHORITY": "CCC"
            },
            {
                "ID": "27326037",
                "IDENTIFIER_TYPE": "NATIONAL_ID",
                "ASSIGNING_AUTHORITY": "GOK"
            },
            {
                "ID": "098765ABC",
                "IDENTIFIER_TYPE": "NHIF",
                "ASSIGNING_AUTHORITY": "NHIF"
            }
        ],
        "PATIENT_NAME": {
            "FIRST_NAME": "THERESA",
            "MIDDLE_NAME": "MAY",
            "LAST_NAME": "WAIRIMU"
        }
    },
    "APPOINTMENT_INFORMATION": [
        {
            "PLACER_APPOINTMENT_NUMBER": {
                "NUMBER": "ABC098",
                "ENTITY": "ADT"
            },
            "APPOINTMENT_REASON": "REGIMEN REFILL",
            "APPOINTMENT_TYPE": "REGIMEN_REFILL",
            "APPOINTMENT_DATE": "20170801",
            "APPOINTMENT_PLACING_ENTITY": "ADT",
            "APPOINTMENT_LOCATION": "PHARMACY",
            "ACTION_CODE": "A",
            "APPOINTMENT_NOTE": "TO COME BACK FOR A REFILL",
            "APPINTMENT_HONORED": "N"
        }
    ]
}